{
  "api": "mmt - sterrenrestaurants",
  "title": "Sterrenrestaurants in België",
  "code": "mmtSterRestos",
  "updated": "2019-01-31",
  "Restaurant": [
    {
      "id": "1",
      "name": "Hof Van Cleve",
      "image": "Hof Van Cleve.jpg",
      "chef": "Peter Goossens",
      "sterren": "3",
      "land": "België",
      "provincie": "Oost-Vlaanderen",
      "gemeente": "Kruishoutem",
      "longitude": "3.509657",
      "latitude": "50.903667",
      "comment": "Eten bij het stijlvolle Hof van Cleve is een totaalbelevenis. Zodra u toekomt, ervaart u dat luxe hem in de details zit. Peter Goossens weet emoties op te wekken met de manier waarop hij de beste producten sublimeert. Het is verbazingwekkend hoe elke hap beroert, hoe elk ingrediënt de perfectie benadert. Een restaurant van wereldklasse!"
    },
    {
      "id": "2",
      "name": "Boury",
      "image": "Boury.jpg",
      "chef": "Tim Boury",
      "sterren": "2",
      "land": "België",
      "provincie": "West-Vlaanderen",
      "gemeente": "Roeselare",
      "longitude": "3.140266",
      "latitude": "50.937376",
      "comment": "Welkom bij Boury 2.0: een rode bakstenen villa die met smaak is ingericht, een moderne aanbouw en zelfs een champagnebar in de tuin. Ook de keuken is geëvolueerd: het focust nog meer op smaak in al zijn facetten, creativiteit wordt ingezet om klassiek extra punch te geven. Een echte ervaring, die in de knappe kamers wordt vervolledigd."
    },
    {
      "id": "3",
      "name": "'t Zilte",
      "image": "'t Zilte.jpg",
      "chef": "Viki Geunes",
      "sterren": "2",
      "land": "België",
      "provincie": "Antwerpen",
      "gemeente": "Antwerpen",
      "longitude": "4.404823",
      "latitude": "51.229040",
      "comment": "Creativiteit degusteren met Antwerpen aan uw voeten. Daarvoor moet u bij 't Zilte zijn, op de bovenste verdieping van het Museum aan de Stroom. De speelse keuken van Viki Geunes uit zich in een heerlijke diversiteit van texturen en smaken, een wervelwind van internationale ingrediënten en absolute topdesserts."
    },
    {
      "id": "4",
      "name": "The Jane",
      "image": "The Jane.jpg",
      "chef": "Nick Bril",
      "sterren": "2",
      "land": "België",
      "provincie": "Antwerpen",
      "gemeente": "Antwerpen",
      "longitude": "4.423446",
      "latitude": "51.202481",
      "comment": "Deze imposante kapel is omgevormd tot een trendy hotspot die gedecoreerd is met elegant design. Een unieke plek in België! De chef creëert ware smaakbommen die complex zijn, diepgaand en internationaal getint. Een sensationele harmonie! Verkiest u cocktails boven het vaste meergangenmenu, kies dan voor de Upper Room Bar."
    },
    {
      "id": "5",
      "name": "Bon Bon",
      "image": "Bon Bon.jpg",
      "chef": "Christophe Hardiquest",
      "sterren": "2",
      "land": "België",
      "provincie": "Brussels Hoofdstedelijk Gewest",
      "gemeente": "Woluwe - Saint Pierre",
      "longitude": "4.446351",
      "latitude": "50.822870",
      "comment": "Christophe Hardiquest neemt u mee op avontuur. Zijn zoektocht naar harmonieën is bestrooid met superieure producten, inventieve bereidingen en smaken die diepgang brengen. Met finesse weet hij zijn stempel te drukken. Dankzij het elegant, contemporain decor snoept u hier in alle sereniteit van zoveel lekkernijen."
    },
    {
      "id": "6",
      "name": "L'air Du Temps",
      "image": "L'air Du Temps.jpg",
      "chef": "Sang Hoon Degeimbre",
      "sterren": "2",
      "land": "België",
      "provincie": "Namen",
      "gemeente": "Lierny",
      "longitude": "4.833039",
      "latitude": "50.592967",
      "comment": "Sang Hoon Degeimbre tilt het begrip foodpairing al sinds 1997 naar een hoger niveau. Hij speelt met smaken en texturen, en maakt gebruik van de modernste technieken. Dat creatieve proces zorgt voor originele gerechten die uitblinken in schoonheid en smaak. In deze gemoderniseerde hoeve, waar u kunt logeren, beleeft u een culinair avontuur!"
    },
    {
      "id": "7",
      "name": "Slagmolen",
      "image": "Slagmolen.jpg",
      "chef": "Bert Meewis",
      "sterren": "2",
      "land": "België",
      "provincie": "Limburg",
      "gemeente": "Opglabbeek",
      "longitude": "5.615871",
      "latitude": "51.043175",
      "comment": "Een karaktervol klasserestaurant in een watermolen, waarvan de machinerie binnen zichtbaar is, met daarachter een prachtig terras in het groen en ernaast luxekamers. Wat een zaak! Chef Meewis levert hier een knap staaltje verfijnde generositeit, zijn authentieke keuken is zeer rijk. Elke cuisson is juist, elke hap een feest!"
    },
    {
      "id": "8",
      "name": "Sea Grill",
      "image": "Sea Grill.jpg",
      "chef": "Yves Mattagne",
      "sterren": "2",
      "land": "België",
      "provincie": "Brussels Hoofdstedelijk Gewest",
      "gemeente": "Brussel",
      "longitude": "4.356412",
      "latitude": "50.849473",
      "comment": "De klasse van de Sea Grill ligt hem in de details, zoals de stijlvolle kunstwerken en de aparte eethoekjes die de discretie bieden die sommige gasten verlangen. Chef Mattagne verwent hen met sublieme klassiekers die de smaken van de zee naar absolute hoogtes tillen. Zijn delicatessen zijn verbazingwekkend, van topniveau!"
    },
    {
      "id": "9",
      "name": "Chambre Séparée",
      "image": "Chambre Séparée.jpg",
      "chef": "Kobe Desramaults",
      "sterren": "1",
      "land": "België",
      "provincie": "Oost-Vlaanderen",
      "gemeente": "Gent",
      "longitude": "3.731905",
      "latitude": "51.053781",
      "comment": "1 menu, een 20-tal gerechtjes, 3 uur aan tafel en dat enkel alleen, met 2 of met 4. De regels zijn strikt, maar u ervaart hier wel een echte smaakbeleving! Gezeten aan de toog, met zicht op de spectaculaire keuken, smult u van topingrediënten die vaak net uit de houtoven komen. Puur, verrassend, intens; een opmerkelijke harmonie van smaken!"
    },
    {
      "id": "10",
      "name": "Bij Lam en Yin",
      "image": "Bij Lam en Yin.jpg",
      "chef": "Lam Yee Lap",
      "sterren": "1",
      "land": "België",
      "provincie": "Antwerpen",
      "gemeente": "Antwerpen",
      "longitude": "4.398900",
      "latitude": "51.219332",
      "comment": "Bij Lam & Yin is een enigszins atypische Aziatische zaak: geen duizelingwekkende hoeveelheid gerechten, geen lampions, ... Maar de Kantonese keuken komt er wel in zijn fijnste vorm op het bord. Hier primeren versheid en originaliteit, de smaken zijn raak! In Gangbei, hun wijnbar, kunt u onder meer authentieke sakes proeven."
    }
  ]
}